…
### Code to inspect apparent amendment notes of particular organisations


```r
changes %>%
  dplyr::filter(is_amendment,
                organisation == "Department for Education") %>%
  count(note, sort = TRUE)
```

```
## # A tibble: 53 x 2
##    note                                                                   n
##    <chr>                                                              <int>
##  1 " Updated parliamentary constituency underlying data table to cor…     1
##  2 A correction has been made to the Inner and Outer London staffing…     1
##  3 "A minor amendment has been made to A level pass rate within Main…     1
##  4 Added 'Additional methodologies at school and LA levels' document…     1
##  5 Added additional underlying data to include LA district level inf…     1
##  6 Added results for Bedford local authority. Changed the distributi…     1
##  7 Additional tables 2 - updated 01/05/2014. Figures for Reading loc…     1
##  8 Amended EBacc English explanation in section 6 of the main text d…     1
##  9 Amended KS1 metadata file in 'Underlying data'.                        1
## 10 Amended percentages for inner London in tables 8a and 8c in the l…     1
## # … with 43 more rows
```
